…
Other model assessment functions:
[`get_model_vars()`](https://bbsbayes.github.io/bbsBayes2/reference/get_model_vars.md),
[`get_summary()`](https://bbsbayes.github.io/bbsBayes2/reference/get_summary.md)

## Examples

``` r
# Temporarily suppress convergence warning for legibility
# "The ESS has been capped to avoid unstable estimates."
opts <- options(warn = -1)

# Using the example model for Pacific Wrens

get_convergence(pacific_wren_model)
#> # A tibble: 11,150 × 5
#>    variable_type variable       rhat ess_bulk ess_tail
#>    <chr>         <chr>         <dbl>    <dbl>    <dbl>
#>  1 lp__          lp__          0.966     52.4     56.9
#>  2 strata_raw    strata_raw[1] 1.03      35.3     40.7
#>  3 strata_raw    strata_raw[2] 0.999     64.1     49.6
#>  4 strata_raw    strata_raw[3] 1.03      34.0     56.9
#>  5 strata_raw    strata_raw[4] 1.02      38.0     49.6
#>  6 strata_raw    strata_raw[5] 1.05      30.3     17.3
#>  7 strata_raw    strata_raw[6] 0.970     64.1     56.9
#>  8 strata_raw    strata_raw[7] 1.06      39.3     56.9
#>  9 strata_raw    strata_raw[8] 1.09      17.7     24.6
#> 10 strata_raw    strata_raw[9] 0.997     58.6     56.9
#> # ℹ 11,140 more rows
…
