…
Other model assessment functions:
[`get_convergence()`](https://bbsbayes.github.io/bbsBayes2/reference/get_convergence.md),
[`get_model_vars()`](https://bbsbayes.github.io/bbsBayes2/reference/get_model_vars.md)

## Examples

``` r
# Temporarily suppress convergence warning for legibility
# "The ESS has been capped to avoid unstable estimates."
opts <- options(warn = -1)

# Using the example model for Pacific Wrens

get_summary(pacific_wren_model)
#> # A tibble: 11,150 × 11
#>    variable_type variable          mean   median     sd    mad       q5      q95
#>    <chr>         <chr>            <dbl>    <dbl>  <dbl>  <dbl>    <dbl>    <dbl>
#>  1 lp__          lp__          -1.47e+4 -1.47e+4 43.3   49.4   -1.47e+4 -1.46e+4
#>  2 strata_raw    strata_raw[1] -8.78e-1 -9.08e-1  0.416  0.357 -1.42e+0 -2.68e-1
#>  3 strata_raw    strata_raw[2] -1.62e-1 -1.79e-1  0.181  0.163 -5.34e-1  1.05e-1
#>  4 strata_raw    strata_raw[3] -2.19e-1 -2.27e-1  0.516  0.486 -1.20e+0  4.65e-1
#>  5 strata_raw    strata_raw[4]  1.51e+0  1.57e+0  0.280  0.268  1.03e+0  1.86e+0
#>  6 strata_raw    strata_raw[5] -2.35e-1 -2.31e-1  0.251  0.258 -6.48e-1  1.73e-1
#>  7 strata_raw    strata_raw[6]  1.17e+0  1.15e+0  0.489  0.463  3.51e-1  1.97e+0
#>  8 strata_raw    strata_raw[7] -1.10e+0 -1.06e+0  0.478  0.585 -1.75e+0 -3.99e-1
#>  9 strata_raw    strata_raw[8]  1.87e+0  1.82e+0  0.406  0.391  1.24e+0  2.41e+0
#> 10 strata_raw    strata_raw[9] -9.28e-1 -9.52e-1  0.349  0.364 -1.41e+0 -4.19e-1
#> # ℹ 11,140 more rows
#> # ℹ 3 more variables: rhat <dbl>, ess_bulk <dbl>, ess_tail <dbl>
…
