Search for species — search_species • bbsBayes2
…
#>  3  7380 Mountain Chickadee      Mésan… Pass… Parid… Poec… gambeli TRUE         
#>  4  7370 Mexican Chickadee       Mésan… Pass… Parid… Poec… sclate… TRUE         
#>  5  7410 Chestnut-backed Chicka… Mésan… Pass… Parid… Poec… rufesc… TRUE         
#>  6  7400 Boreal Chickadee        Mésan… Pass… Parid… Poec… hudson… TRUE         
#>  7  7352 unid. Carolina Chickad… unid … Pass… Parid… Poec… caroli… TRUE         
#>  8  7353 unid. Black-capped Chi… unid … Pass… Parid… Poec… atrica… TRUE         
#>  9  7354 unid. Black-capped Chi… unid … Pass… Parid… Poec… atrica… TRUE         
#> 10  7351 unid. western chickade… unid … Pass… Parid… Poec… sp.     TRUE         
search_species(7360)
#> # A tibble: 1 × 8
#>     aou english            french       order family genus species unid_combined
#>   <dbl> <chr>              <chr>        <chr> <chr>  <chr> <chr>   <lgl>        
#> 1  7360 Carolina Chickadee Mésange de … Pass… Parid… Poec… caroli… TRUE         
search_species(73)
#> # A tibble: 28 × 8
#>      aou english                 french order family genus species unid_combined
#>    <dbl> <chr>                   <chr>  <chr> <chr>  <chr> <chr>   <lgl>        
#>  1  1730 Brant                   Berna… Anse… Anati… Bran… bernic… TRUE         
#>  2  2973 Blue Grouse (Dusky/Soo… Tétra… Gall… Phasi… Dend… obscur… TRUE         
#>  3  2730 Killdeer                Pluvi… Char… Chara… Char… vocife… TRUE         
#>  4   730 Aleutian Tern           Stern… Char… Larid… Onyc… aleuti… TRUE         
#>  5  3731 Whiskered Screech-Owl   Petit… Stri… Strig… Mega… tricho… TRUE         
#>  6  3732 Western Screech-Owl     Petit… Stri… Strig… Mega… kennic… TRUE         
#>  7  3730 Eastern Screech-Owl     Petit… Stri… Strig… Mega… asio    TRUE         
#>  8  7360 Carolina Chickadee      Mésan… Pass… Parid… Poec… caroli… TRUE         
#>  9  7350 Black-capped Chickadee  Mésan… Pass… Parid… Poec… atrica… TRUE         
#> 10  7380 Mountain Chickadee      Mésan… Pass… Parid… Poec… gambeli TRUE         
#> # ℹ 18 more rows
…
