Stratify and filter Breeding Bird Survey data — stratify • bbsBayes2
…
# Check routes omitted by stratification
s <- stratify(by = "latlong", species = "Snowy Owl", return_omitted = TRUE)
#> Using 'latlong' (standard) stratification
#> Loading BBS data...
#> Filtering to species Snowy Owl (3760)
#> Stratifying data...
#>   Renaming routes...
#>   Omitting 81/124,900 route-years that do not match a stratum.
#>     Returning omitted routes.
s[["routes_omitted"]]
#> # A tibble: 81 × 11
#>     year strata_name country state     route route_name latitude longitude   bcr
#>    <dbl> <chr>       <chr>   <chr>     <chr> <chr>         <dbl>     <dbl> <dbl>
#>  1  1988 NA          US      CALIFORN… 14-1… SANTA CRU…     34.0    -120.     32
#>  2  1987 NA          US      FLORIDA   25-83 KEY WEST       24.7     -81.2    31
#>  3  1999 NA          US      FLORIDA   25-1… SUGARLOAF…     24.7     -81.2    31
#>  4  2002 NA          US      FLORIDA   25-1… SUGARLOAF…     24.7     -81.2    31
#>  5  2003 NA          US      FLORIDA   25-1… SUGARLOAF…     24.7     -81.2    31
#>  6  2004 NA          US      FLORIDA   25-1… SUGARLOAF…     24.7     -81.2    31
#>  7  2005 NA          US      FLORIDA   25-2… SUGARLOAF…     24.6     -81.6    31
#>  8  2006 NA          US      FLORIDA   25-2… SUGARLOAF…     24.6     -81.6    31
#>  9  2007 NA          US      FLORIDA   25-2… SUGARLOAF…     24.6     -81.6    31
#> 10  2008 NA          US      FLORIDA   25-2… SUGARLOAF…     24.6     -81.6    31
#> # ℹ 71 more rows
#> # ℹ 2 more variables: obs_n <dbl>, total_spp <dbl>
…
