…
# Check routes omitted by stratification
s <- stratify(by = "latlong", species = "Snowy Owl", return_omitted = TRUE)
#> Using 'latlong' (standard) stratification
#> Loading BBS data...
#> Filtering to species Snowy Owl (3760)
#> Stratifying data...
#>   Renaming routes...
#>   Omitting 115/127,482 route-years that do not match a stratum.
#>     Returning omitted routes.
s[["routes_omitted"]]
#> # A tibble: 115 × 11
#>     year strata_name country state     route route_name latitude longitude   bcr
#>    <dbl> <chr>       <chr>   <chr>     <chr> <chr>         <dbl>     <dbl> <dbl>
#>  1  1988 NA          US      CALIFORN… 14-1… SANTA CRU…     34.0    -120.     32
#>  2  1966 NA          US      FLORIDA   25-36 PLANTATIO…     25.0     -80.5    31
#>  3  1967 NA          US      FLORIDA   25-36 PLANTATIO…     25.0     -80.5    31
#>  4  1969 NA          US      FLORIDA   25-36 PLANTATIO…     25.0     -80.5    31
#>  5  1970 NA          US      FLORIDA   25-36 PLANTATIO…     25.0     -80.5    31
#>  6  1971 NA          US      FLORIDA   25-36 PLANTATIO…     25.0     -80.5    31
#>  7  1972 NA          US      FLORIDA   25-36 PLANTATIO…     25.0     -80.5    31
#>  8  1973 NA          US      FLORIDA   25-36 PLANTATIO…     25.0     -80.5    31
#>  9  1974 NA          US      FLORIDA   25-36 PLANTATIO…     25.0     -80.5    31
#> 10  1975 NA          US      FLORIDA   25-36 PLANTATIO…     25.0     -80.5    31
#> # ℹ 105 more rows
#> # ℹ 2 more variables: obs_n <dbl>, total_spp <dbl>
…
