…
``` r
# Convergence diagnostics for all parameters
converge <- get_convergence(m)
```


``` r
# Convergence diagnostics for all smoothed annual indices
converge_n_smooth <- get_convergence(m, variables = "n_smooth") %>%
  arrange(-rhat)
converge_n_smooth
#> # A tibble: 1,425 × 5
#>    variable_type variable         rhat ess_bulk ess_tail
#>    <chr>         <chr>           <dbl>    <dbl>    <dbl>
#>  1 n_smooth      n_smooth[21,25]  1.00    5881.    2893.
#>  2 n_smooth      n_smooth[20,16]  1.00    4369.    3568.
#>  3 n_smooth      n_smooth[20,15]  1.00    4363.    3713.
#>  4 n_smooth      n_smooth[18,27]  1.00    4850.    3204.
#>  5 n_smooth      n_smooth[24,33]  1.00    5138.    3663.
#>  6 n_smooth      n_smooth[18,29]  1.00    4999.    3353.
#>  7 n_smooth      n_smooth[16,51]  1.00    4498.    3746.
#>  8 n_smooth      n_smooth[18,28]  1.00    5024.    3182.
#>  9 n_smooth      n_smooth[16,50]  1.00    4430.    3747.
#> 10 n_smooth      n_smooth[21,23]  1.00    5757.    3643.
#> # ℹ 1,415 more rows
```
…
``` r
# Summary statistics and convergence diagnostics for all parameters
summary_stats <- get_summary(m)
```


``` r
# Summary statistics and convergence diagnostics for all smoothed annual indices
summary_stats_n_smooth <- get_summary(m, variables = "n_smooth") %>%
  arrange(-rhat)
summary_stats_n_smooth
#> # A tibble: 1,425 × 10
#>    variable         mean median    sd   mad    q5   q95  rhat ess_bulk ess_tail
#>    <chr>           <dbl>  <dbl> <dbl> <dbl> <dbl> <dbl> <dbl>    <dbl>    <dbl>
#>  1 n_smooth[21,25] 33.6   33.6  1.33  1.32  31.5  35.8   1.00    5881.    2893.
#>  2 n_smooth[20,16] 13.8   13.8  0.998 1.01  12.2  15.5   1.00    4369.    3568.
#>  3 n_smooth[20,15] 12.8   12.7  0.926 0.935 11.3  14.3   1.00    4363.    3713.
#>  4 n_smooth[18,27]  8.93   8.89 0.743 0.720  7.80 10.2   1.00    4850.    3204.
#>  5 n_smooth[24,33] 36.4   36.3  2.26  2.21  32.7  40.2   1.00    5138.    3663.
#>  6 n_smooth[18,29]  8.70   8.66 0.690 0.668  7.62  9.91  1.00    4999.    3353.
#>  7 n_smooth[16,51] 19.1   19.0  1.60  1.59  16.6  21.9   1.00    4498.    3746.
#>  8 n_smooth[18,28]  8.78   8.74 0.714 0.696  7.68 10.0   1.00    5024.    3182.
#>  9 n_smooth[16,50] 20.6   20.5  1.67  1.65  18.0  23.6   1.00    4430.    3747.
#> 10 n_smooth[21,23] 34.5   34.5  1.40  1.36  32.3  36.9   1.00    5757.    3643.
#> # ℹ 1,415 more rows
```
…
``` r
i <- generate_indices(model_output = m)
#> Processing region continent
#> Processing region stratum
```

We can explore or extract these indices for saving as an external file
(e.g., export to .csv), by accessing the `indices` item in the list.


``` r
i[["indices"]]
#> # A tibble: 1,482 × 17
#>     year region    region_type strata_included         strata_excluded index index_q_0.025 index_q_0.05 index_q_0.25
#>    <dbl> <chr>     <chr>       <chr>                   <chr>           <dbl>         <dbl>        <dbl>        <dbl>
#>  1  1967 continent continent   US-AR-24 ; US-AR-25 ; … ""              13.1          11.7         11.9         12.6 
#>  2  1968 continent continent   US-AR-24 ; US-AR-25 ; … ""              12.9          11.8         12.0         12.5 
#>  3  1969 continent continent   US-AR-24 ; US-AR-25 ; … ""              12.9          12.0         12.1         12.6 
#>  4  1970 continent continent   US-AR-24 ; US-AR-25 ; … ""              12.9          12.1         12.2         12.6 
#>  5  1971 continent continent   US-AR-24 ; US-AR-25 ; … ""              12.9          12.0         12.1         12.6 
#>  6  1972 continent continent   US-AR-24 ; US-AR-25 ; … ""              12.8          12.0         12.1         12.5 
#>  7  1973 continent continent   US-AR-24 ; US-AR-25 ; … ""              11.7          11.0         11.1         11.5 
#>  8  1974 continent continent   US-AR-24 ; US-AR-25 ; … ""              11.0          10.3         10.5         10.8 
#>  9  1975 continent continent   US-AR-24 ; US-AR-25 ; … ""              10.3           9.67         9.77        10.1 
#> 10  1976 continent continent   US-AR-24 ; US-AR-25 ; … ""               9.35          8.76         8.85         9.14
#> # ℹ 1,472 more rows
#> # ℹ 8 more variables: index_q_0.75 <dbl>, index_q_0.95 <dbl>, index_q_0.975 <dbl>, obs_mean <dbl>, n_routes <int>,
#> #   n_routes_total <int>, n_non_zero <int>, backcast_flag <dbl>
```
…
``` r
t <- generate_trends(i)
```

We can explore or extract these trends for saving as an external file
(e.g., export to .csv), by accessing the `trends` item in the list.


``` r
t[["trends"]]
#> # A tibble: 26 × 27
#>    start_year end_year region    region_type strata_included      strata_excluded   trend trend_q_0.025 trend_q_0.05
#>         <dbl>    <dbl> <chr>     <chr>       <chr>                <chr>             <dbl>         <dbl>        <dbl>
#>  1       1967     2023 continent continent   US-AR-24 ; US-AR-25… ""              -0.874         -1.11        -1.07 
#>  2       1967     2023 US-AR-24  stratum     US-AR-24             ""               4.41           3.10         3.33 
#>  3       1967     2023 US-AR-25  stratum     US-AR-25             ""               0.214         -0.553       -0.411
#>  4       1967     2023 US-AR-26  stratum     US-AR-26             ""               4.65           2.78         3.06 
#>  5       1967     2023 US-KS-18  stratum     US-KS-18             ""               2.81          -1.36        -0.700
#>  6       1967     2023 US-KS-19  stratum     US-KS-19             ""              -0.538         -1.31        -1.19 
#>  7       1967     2023 US-KS-22  stratum     US-KS-22             ""              -0.0272        -0.701       -0.615
#>  8       1967     2023 US-LA-25  stratum     US-LA-25             ""              -1.25          -2.85        -2.56 
#>  9       1967     2023 US-LA-37  stratum     US-LA-37             ""               0.320         -1.81        -1.49 
#> 10       1967     2023 US-MO-22  stratum     US-MO-22             ""              -0.356         -2.43        -2.08 
#> # ℹ 16 more rows
#> # ℹ 18 more variables: trend_q_0.25 <dbl>, trend_q_0.75 <dbl>, trend_q_0.95 <dbl>, trend_q_0.975 <dbl>,
#> #   percent_change <dbl>, percent_change_q_0.025 <dbl>, percent_change_q_0.05 <dbl>, percent_change_q_0.25 <dbl>,
#> #   percent_change_q_0.75 <dbl>, percent_change_q_0.95 <dbl>, percent_change_q_0.975 <dbl>,
#> #   width_of_95_percent_credible_interval <dbl>, rel_abundance <dbl>, obs_rel_abundance <dbl>, n_routes <dbl>,
#> #   mean_n_routes <dbl>, n_strata_included <dbl>, backcast_flag <dbl>
```

We can generate trends for different periods of time, using any
combination of a starting year `min_year` and ending year `max_year`.


``` r
t_10 <- generate_trends(i,
                        min_year = 2011,
                        max_year = 2021)
t_10
#> $trends
#> # A tibble: 26 × 27
#>    start_year end_year region    region_type strata_included      strata_excluded   trend trend_q_0.025 trend_q_0.05
#>         <dbl>    <dbl> <chr>     <chr>       <chr>                <chr>             <dbl>         <dbl>        <dbl>
#>  1       2011     2021 continent continent   US-AR-24 ; US-AR-25… ""              -2.00           -2.71       -2.61 
#>  2       2011     2021 US-AR-24  stratum     US-AR-24             ""               1.94           -1.19       -0.648
#>  3       2011     2021 US-AR-25  stratum     US-AR-25             ""              -0.411          -2.85       -2.46 
#>  4       2011     2021 US-AR-26  stratum     US-AR-26             ""               3.18           -2.08       -0.996
#>  5       2011     2021 US-KS-18  stratum     US-KS-18             ""               4.08           -2.35       -1.24 
#>  6       2011     2021 US-KS-19  stratum     US-KS-19             ""               0.982          -2.07       -1.60 
#>  7       2011     2021 US-KS-22  stratum     US-KS-22             ""              -3.95           -6.37       -5.92 
#>  8       2011     2021 US-LA-25  stratum     US-LA-25             ""              -2.19           -8.99       -7.78 
#>  9       2011     2021 US-LA-37  stratum     US-LA-37             ""               1.43           -4.89       -3.92 
#> 10       2011     2021 US-MO-22  stratum     US-MO-22             ""               0.0656         -6.34       -5.38 
#> # ℹ 16 more rows
#> # ℹ 18 more variables: trend_q_0.25 <dbl>, trend_q_0.75 <dbl>, trend_q_0.95 <dbl>, trend_q_0.975 <dbl>,
#> #   percent_change <dbl>, percent_change_q_0.025 <dbl>, percent_change_q_0.05 <dbl>, percent_change_q_0.25 <dbl>,
#> #   percent_change_q_0.75 <dbl>, percent_change_q_0.95 <dbl>, percent_change_q_0.975 <dbl>,
#> #   width_of_95_percent_credible_interval <dbl>, rel_abundance <dbl>, obs_rel_abundance <dbl>, n_routes <dbl>,
#> #   mean_n_routes <dbl>, n_strata_included <dbl>, backcast_flag <dbl>
…
#> $meta_data$n_years
#> [1] 57
#> 
#> $meta_data$hpdi_indices
#> [1] FALSE
#> 
#> $meta_data$hpdi_trends
#> [1] FALSE
#> 
#> $meta_data$gam_smooth_trends
#> [1] FALSE
#> 
#> 
#> $meta_strata
#> # A tibble: 25 × 5
#>    strata_name strata area_sq_km continent stratum 
#>    <chr>        <dbl>      <dbl> <chr>     <chr>   
#>  1 US-AR-24         1     33232. continent US-AR-24
#>  2 US-AR-25         2     65340. continent US-AR-25
#>  3 US-AR-26         3     39366. continent US-AR-26
#>  4 US-KS-18         4     37179. continent US-KS-18
#>  5 US-KS-19         5    109390. continent US-KS-19
#>  6 US-KS-22         6     66243. continent US-KS-22
#>  7 US-LA-25         7     47075. continent US-LA-25
#>  8 US-LA-37         8     24987. continent US-LA-37
#>  9 US-MO-22         9     83079. continent US-MO-22
#> 10 US-MO-24        10     87034. continent US-MO-24
#> # ℹ 15 more rows
#> 
#> $raw_data
#> # A tibble: 13,250 × 23
#>    country_num state_num state   rpid   bcr  year strata_name route  obs_n count n_routes non_zero_weight first_year
#>          <dbl>     <dbl> <chr>  <dbl> <dbl> <dbl> <chr>       <chr>  <dbl> <dbl>    <int>           <dbl>      <dbl>
#>  1         840         7 ARKAN…   101    24  1967 US-AR-24    7-20  1.19e6     0       12               1          1
#>  2         840         7 ARKAN…   101    24  1968 US-AR-24    7-20  1.19e6     0       12               1          0
#>  3         840         7 ARKAN…   101    24  1969 US-AR-24    7-20  1.19e6     0       12               1          0
#>  4         840         7 ARKAN…   101    24  1970 US-AR-24    7-20  1.19e6     0       12               1          0
#>  5         840         7 ARKAN…   101    24  1971 US-AR-24    7-20  1.19e6     0       12               1          0
#>  6         840         7 ARKAN…   101    24  1972 US-AR-24    7-20  1.19e6     0       12               1          0
#>  7         840         7 ARKAN…   101    24  1973 US-AR-24    7-20  1.19e6     0       12               1          0
#>  8         840         7 ARKAN…   101    24  1974 US-AR-24    7-20  1.19e6     0       12               1          0
#>  9         840         7 ARKAN…   101    24  1975 US-AR-24    7-20  1.19e6     0       12               1          0
#> 10         840         7 ARKAN…   101    24  1976 US-AR-24    7-20  1.19e6     0       12               1          0
#> # ℹ 13,240 more rows
#> # ℹ 10 more variables: max_n_routes_year <int>, n_obs <int>, mean_obs <dbl>, year_num <dbl>, strata <dbl>,
#> #   observer <int>, site <int>, obs_route <chr>, obs_site <int>, n_obs_sites <int>
```
…
