…
s[["routes_strata"]]
#> # A tibble: 20,874 × 34
#>    strata_name country_num state_num route route_name active   bcr route_type_id route_type_detail_id
#>    <chr>             <dbl>     <dbl> <chr> <chr>       <dbl> <dbl>         <dbl>                <dbl>
#>  1 3                   840         3 3-4   BIRCH LAKE      1     4             1                    1
#>  2 3                   840         3 3-4   BIRCH LAKE      1     4             1                    1
#>  3 3                   840         3 3-4   BIRCH LAKE      1     4             1                    1
#>  4 3                   840         3 3-4   BIRCH LAKE      1     4             1                    1
#>  5 3                   840         3 3-4   BIRCH LAKE      1     4             1                    1
#>  6 3                   840         3 3-4   BIRCH LAKE      1     4             1                    1
#>  7 3                   840         3 3-4   BIRCH LAKE      1     4             1                    1
#>  8 3                   840         3 3-4   BIRCH LAKE      1     4             1                    1
#>  9 3                   840         3 3-4   BIRCH LAKE      1     4             1                    1
#> 10 3                   840         3 3-4   BIRCH LAKE      1     4             1                    1
#> # ℹ 20,864 more rows
#> # ℹ 25 more variables: route_data_id <dbl>, rpid <dbl>, year <dbl>, month <dbl>, day <dbl>,
#> #   obs_n <dbl>, total_spp <dbl>, start_temp <dbl>, end_temp <dbl>, temp_scale <chr>,
#> #   start_wind <dbl>, end_wind <dbl>, start_sky <dbl>, end_sky <dbl>, start_time <dbl>,
#> #   end_time <dbl>, assistant <dbl>, quality_current_id <dbl>, run_type <dbl>, state <chr>,
#> #   st_abrev <chr>, country <chr>, longitude <dbl>, latitude <dbl>, area_sq_km <dbl>
```
…
s <- stratify(by = "WBPHS", species = "Mallard", strata_custom = map,
              return_omitted = TRUE)
#> Using 'wbphs' (custom) stratification
#> Loading BBS data...
#> Filtering to species Mallard (1320)
#> Stratifying data...
#> Preparing strata (EPSG:4326; WGS 84)...
#>   Summarizing strata...
#>   Calculating area weights...
#>   Joining routes to spatial layer...
#>   Renaming routes...
#>   Omitting 106,608/127,482 surveys, on 3,783 unique routes that do not match a stratum.
#>     Returning omitted routes.
s[["routes_omitted"]]
#> # A tibble: 106,608 × 11
#>     year strata_name country state   route route_name latitude longitude   bcr   obs_n total_spp
#>    <dbl> <chr>       <chr>   <chr>   <chr> <chr>         <dbl>     <dbl> <dbl>   <dbl>     <dbl>
#>  1  1967 <NA>        US      ALABAMA 2-1   ST FLORIAN     34.9     -87.6    27 1140018        56
#>  2  1969 <NA>        US      ALABAMA 2-1   ST FLORIAN     34.9     -87.6    27  990062        52
#>  3  1970 <NA>        US      ALABAMA 2-1   ST FLORIAN     34.9     -87.6    27  990062        52
#>  4  1971 <NA>        US      ALABAMA 2-1   ST FLORIAN     34.9     -87.6    27  990062        56
#>  5  1972 <NA>        US      ALABAMA 2-1   ST FLORIAN     34.9     -87.6    27  990062        54
#>  6  1973 <NA>        US      ALABAMA 2-1   ST FLORIAN     34.9     -87.6    27 1060057        52
#>  7  1974 <NA>        US      ALABAMA 2-1   ST FLORIAN     34.9     -87.6    27 1060057        55
#>  8  1975 <NA>        US      ALABAMA 2-1   ST FLORIAN     34.9     -87.6    27 1060057        59
#>  9  1976 <NA>        US      ALABAMA 2-1   ST FLORIAN     34.9     -87.6    27 1060057        56
#> 10  1977 <NA>        US      ALABAMA 2-1   ST FLORIAN     34.9     -87.6    27 1060057        51
#> # ℹ 106,598 more rows
```
…
