Get Started • bbsBayes2
…
# Convergence diagnostics for all parameters
converge <- get_convergence(m)

# Convergence diagnostics for all smoothed annual indices
converge_n_smooth <- get_convergence(m, variables = "n_smooth") %>%
  arrange(-rhat)
converge_n_smooth
#> # A tibble: 1,425 × 5
#>    variable_type variable         rhat ess_bulk ess_tail
#>    <chr>         <chr>           <dbl>    <dbl>    <dbl>
#>  1 n_smooth      n_smooth[21,25]  1.00    5881.    2893.
#>  2 n_smooth      n_smooth[20,16]  1.00    4369.    3568.
#>  3 n_smooth      n_smooth[20,15]  1.00    4363.    3713.
#>  4 n_smooth      n_smooth[18,27]  1.00    4850.    3204.
#>  5 n_smooth      n_smooth[24,33]  1.00    5138.    3663.
#>  6 n_smooth      n_smooth[18,29]  1.00    4999.    3353.
#>  7 n_smooth      n_smooth[16,51]  1.00    4498.    3746.
#>  8 n_smooth      n_smooth[18,28]  1.00    5024.    3182.
#>  9 n_smooth      n_smooth[16,50]  1.00    4430.    3747.
#> 10 n_smooth      n_smooth[21,23]  1.00    5757.    3643.
#> # ℹ 1,415 more rows
…
If you want summary statistics of the parameters, as well as
convergence diagnostics, the function get_summary() may be
more useful.

# Summary statistics and convergence diagnostics for all parameters
summary_stats <- get_summary(m)

# Summary statistics and convergence diagnostics for all smoothed annual indices
summary_stats_n_smooth <- get_summary(m, variables = "n_smooth") %>%
  arrange(-rhat)
summary_stats_n_smooth
#> # A tibble: 1,425 × 10
#>    variable      mean median    sd   mad    q5   q95  rhat ess_bulk
#>    <chr>        <dbl>  <dbl> <dbl> <dbl> <dbl> <dbl> <dbl>    <dbl>
#>  1 n_smooth[21… 33.6   33.6  1.33  1.32  31.5  35.8   1.00    5881.
#>  2 n_smooth[20… 13.8   13.8  0.998 1.01  12.2  15.5   1.00    4369.
#>  3 n_smooth[20… 12.8   12.7  0.926 0.935 11.3  14.3   1.00    4363.
#>  4 n_smooth[18…  8.93   8.89 0.743 0.720  7.80 10.2   1.00    4850.
#>  5 n_smooth[24… 36.4   36.3  2.26  2.21  32.7  40.2   1.00    5138.
#>  6 n_smooth[18…  8.70   8.66 0.690 0.668  7.62  9.91  1.00    4999.
#>  7 n_smooth[16… 19.1   19.0  1.60  1.59  16.6  21.9   1.00    4498.
#>  8 n_smooth[18…  8.78   8.74 0.714 0.696  7.68 10.0   1.00    5024.
#>  9 n_smooth[16… 20.6   20.5  1.67  1.65  18.0  23.6   1.00    4430.
#> 10 n_smooth[21… 34.5   34.5  1.40  1.36  32.3  36.9   1.00    5757.
#> # ℹ 1,415 more rows
#> # ℹ 1 more variable: ess_tail <dbl>
…
i <- generate_indices(model_output = m)
#> Processing region continent
#> Processing region stratum

We can explore or extract these indices for saving as an external
file (e.g., export to .csv), by accessing the indices item
in the list.

i[["indices"]]
#> # A tibble: 1,482 × 17
#>     year region   region_type strata_included strata_excluded index
#>    <dbl> <chr>    <chr>       <chr>           <chr>           <dbl>
#>  1  1967 contine… continent   US-AR-24 ; US-… ""              13.1 
#>  2  1968 contine… continent   US-AR-24 ; US-… ""              12.9 
#>  3  1969 contine… continent   US-AR-24 ; US-… ""              12.9 
#>  4  1970 contine… continent   US-AR-24 ; US-… ""              12.9 
#>  5  1971 contine… continent   US-AR-24 ; US-… ""              12.9 
#>  6  1972 contine… continent   US-AR-24 ; US-… ""              12.8 
#>  7  1973 contine… continent   US-AR-24 ; US-… ""              11.7 
#>  8  1974 contine… continent   US-AR-24 ; US-… ""              11.0 
#>  9  1975 contine… continent   US-AR-24 ; US-… ""              10.3 
#> 10  1976 contine… continent   US-AR-24 ; US-… ""               9.35
#> # ℹ 1,472 more rows
#> # ℹ 11 more variables: index_q_0.025 <dbl>, index_q_0.05 <dbl>,
#> #   index_q_0.25 <dbl>, index_q_0.75 <dbl>, index_q_0.95 <dbl>,
#> #   index_q_0.975 <dbl>, obs_mean <dbl>, n_routes <int>,
#> #   n_routes_total <int>, n_non_zero <int>, backcast_flag <dbl>
…
Trends - predictions of mean rates of change over time

Next we can calculate the long-term trends based on these indices.
Note all trends from bbsBayes2 models are derived from summaries of
indices through time or between two points in time.

t <- generate_trends(i)

We can explore or extract these trends for saving as an external file
(e.g., export to .csv), by accessing the trends item in the
list.

t[["trends"]]
#> # A tibble: 26 × 27
#>    start_year end_year region    region_type strata_included       
#>         <dbl>    <dbl> <chr>     <chr>       <chr>                 
#>  1       1967     2023 continent continent   US-AR-24 ; US-AR-25 ;…
#>  2       1967     2023 US-AR-24  stratum     US-AR-24              
#>  3       1967     2023 US-AR-25  stratum     US-AR-25              
#>  4       1967     2023 US-AR-26  stratum     US-AR-26              
#>  5       1967     2023 US-KS-18  stratum     US-KS-18              
#>  6       1967     2023 US-KS-19  stratum     US-KS-19              
#>  7       1967     2023 US-KS-22  stratum     US-KS-22              
#>  8       1967     2023 US-LA-25  stratum     US-LA-25              
#>  9       1967     2023 US-LA-37  stratum     US-LA-37              
#> 10       1967     2023 US-MO-22  stratum     US-MO-22              
#> # ℹ 16 more rows
#> # ℹ 22 more variables: strata_excluded <chr>, trend <dbl>,
#> #   trend_q_0.025 <dbl>, trend_q_0.05 <dbl>, trend_q_0.25 <dbl>,
#> #   trend_q_0.75 <dbl>, trend_q_0.95 <dbl>, trend_q_0.975 <dbl>,
#> #   percent_change <dbl>, percent_change_q_0.025 <dbl>,
#> #   percent_change_q_0.05 <dbl>, percent_change_q_0.25 <dbl>,
#> #   percent_change_q_0.75 <dbl>, percent_change_q_0.95 <dbl>, …

We can generate trends for different periods of time, using any
combination of a starting year min_year and ending year
max_year.

t_10 <- generate_trends(i,
                        min_year = 2011,
                        max_year = 2021)
t_10
#> $trends
#> # A tibble: 26 × 27
#>    start_year end_year region    region_type strata_included       
#>         <dbl>    <dbl> <chr>     <chr>       <chr>                 
#>  1       2011     2021 continent continent   US-AR-24 ; US-AR-25 ;…
#>  2       2011     2021 US-AR-24  stratum     US-AR-24              
#>  3       2011     2021 US-AR-25  stratum     US-AR-25              
#>  4       2011     2021 US-AR-26  stratum     US-AR-26              
#>  5       2011     2021 US-KS-18  stratum     US-KS-18              
#>  6       2011     2021 US-KS-19  stratum     US-KS-19              
#>  7       2011     2021 US-KS-22  stratum     US-KS-22              
#>  8       2011     2021 US-LA-25  stratum     US-LA-25              
#>  9       2011     2021 US-LA-37  stratum     US-LA-37              
#> 10       2011     2021 US-MO-22  stratum     US-MO-22              
#> # ℹ 16 more rows
#> # ℹ 22 more variables: strata_excluded <chr>, trend <dbl>,
#> #   trend_q_0.025 <dbl>, trend_q_0.05 <dbl>, trend_q_0.25 <dbl>,
#> #   trend_q_0.75 <dbl>, trend_q_0.95 <dbl>, trend_q_0.975 <dbl>,
#> #   percent_change <dbl>, percent_change_q_0.025 <dbl>,
#> #   percent_change_q_0.05 <dbl>, percent_change_q_0.25 <dbl>,
#> #   percent_change_q_0.75 <dbl>, percent_change_q_0.95 <dbl>, …
…
#> $meta_data$n_years
#> [1] 57
#> 
#> $meta_data$hpdi_indices
#> [1] FALSE
#> 
#> $meta_data$hpdi_trends
#> [1] FALSE
#> 
#> $meta_data$gam_smooth_trends
#> [1] FALSE
#> 
#> 
#> $meta_strata
#> # A tibble: 25 × 5
#>    strata_name strata area_sq_km continent stratum 
#>    <chr>        <dbl>      <dbl> <chr>     <chr>   
#>  1 US-AR-24         1     33232. continent US-AR-24
#>  2 US-AR-25         2     65340. continent US-AR-25
#>  3 US-AR-26         3     39366. continent US-AR-26
#>  4 US-KS-18         4     37179. continent US-KS-18
#>  5 US-KS-19         5    109390. continent US-KS-19
#>  6 US-KS-22         6     66243. continent US-KS-22
#>  7 US-LA-25         7     47075. continent US-LA-25
#>  8 US-LA-37         8     24987. continent US-LA-37
#>  9 US-MO-22         9     83079. continent US-MO-22
#> 10 US-MO-24        10     87034. continent US-MO-24
#> # ℹ 15 more rows
#> 
#> $raw_data
#> # A tibble: 13,250 × 23
#>    country_num state_num state   rpid   bcr  year strata_name route
#>          <dbl>     <dbl> <chr>  <dbl> <dbl> <dbl> <chr>       <chr>
#>  1         840         7 ARKAN…   101    24  1967 US-AR-24    7-20 
#>  2         840         7 ARKAN…   101    24  1968 US-AR-24    7-20 
#>  3         840         7 ARKAN…   101    24  1969 US-AR-24    7-20 
#>  4         840         7 ARKAN…   101    24  1970 US-AR-24    7-20 
#>  5         840         7 ARKAN…   101    24  1971 US-AR-24    7-20 
#>  6         840         7 ARKAN…   101    24  1972 US-AR-24    7-20 
#>  7         840         7 ARKAN…   101    24  1973 US-AR-24    7-20 
#>  8         840         7 ARKAN…   101    24  1974 US-AR-24    7-20 
#>  9         840         7 ARKAN…   101    24  1975 US-AR-24    7-20 
#> 10         840         7 ARKAN…   101    24  1976 US-AR-24    7-20 
#> # ℹ 13,240 more rows
#> # ℹ 15 more variables: obs_n <dbl>, count <dbl>, n_routes <int>,
#> #   non_zero_weight <dbl>, first_year <dbl>,
#> #   max_n_routes_year <int>, n_obs <int>, mean_obs <dbl>,
#> #   year_num <dbl>, strata <dbl>, observer <int>, site <int>,
#> #   obs_route <chr>, obs_site <int>, n_obs_sites <int>
…
