Models: First Difference Hierarchical • bbsBayes2
…
Explore results

Convergence

conv <- get_convergence(m)
conv
#> # A tibble: 10,495 × 5
#>    variable_type variable       rhat ess_bulk ess_tail
#>    <chr>         <chr>         <dbl>    <dbl>    <dbl>
#>  1 lp__          lp__          2.25        10       10
#>  2 strata_raw    strata_raw[1] 1.07        10       10
#>  3 strata_raw    strata_raw[2] 1.37        10       10
#>  4 strata_raw    strata_raw[3] 0.937       10       10
#>  5 strata_raw    strata_raw[4] 1.52        10       10
#>  6 strata_raw    strata_raw[5] 1.34        10       10
#>  7 strata_raw    strata_raw[6] 1.23        10       10
#>  8 strata_raw    strata_raw[7] 1.16        10       10
#>  9 strata_raw    strata_raw[8] 1.29        10       10
#> 10 strata_raw    strata_raw[9] 1.35        10       10
#> # … with 10,485 more rows
…
