Models: Slope Hierarchical • bbsBayes2
…
Explore results

Convergence

conv <- get_convergence(m)
conv
#> # A tibble: 10,338 × 5
#>    variable_type variable       rhat ess_bulk ess_tail
#>    <chr>         <chr>         <dbl>    <dbl>    <dbl>
#>  1 lp__          lp__          1.74        10       10
#>  2 strata_raw    strata_raw[1] 0.986       10       10
#>  3 strata_raw    strata_raw[2] 1.16        10       10
#>  4 strata_raw    strata_raw[3] 1.20        10       10
#>  5 strata_raw    strata_raw[4] 1.18        10       10
#>  6 strata_raw    strata_raw[5] 1.03        10       10
#>  7 strata_raw    strata_raw[6] 0.989       10       10
#>  8 strata_raw    strata_raw[7] 0.931       10       10
#>  9 strata_raw    strata_raw[8] 1.25        10       10
#> 10 strata_raw    strata_raw[9] 1.05        10       10
#> # … with 10,328 more rows
…
