Models: Slope Spatial • bbsBayes2
…
Explore results

Convergence

conv <- get_convergence(m)
conv
#> # A tibble: 10,338 × 5
#>    variable_type variable       rhat ess_bulk ess_tail
#>    <chr>         <chr>         <dbl>    <dbl>    <dbl>
#>  1 lp__          lp__           1.77       10       10
#>  2 strata_raw    strata_raw[1]  1.38       10       10
#>  3 strata_raw    strata_raw[2]  1.46       10       10
#>  4 strata_raw    strata_raw[3]  1.07       10       10
#>  5 strata_raw    strata_raw[4]  1.32       10       10
#>  6 strata_raw    strata_raw[5]  1.49       10       10
#>  7 strata_raw    strata_raw[6]  1.35       10       10
#>  8 strata_raw    strata_raw[7]  1.76       10       10
#>  9 strata_raw    strata_raw[8]  1.50       10       10
#> 10 strata_raw    strata_raw[9]  1.26       10       10
#> # … with 10,328 more rows
…
