Stratification • bbsBayes2
…
But what if you want to use the BBS CWS stratification, but only
really want to look at Canadian regions?

In this case you’ll subset the BBS CWS stratification and give
stratify() that data set in addition to the
specification.

In addition to maps, stratifications are available as data frames in
the bbs_strata object.

names(bbs_strata)
#> [1] "bbs_usgs"   "bbs_cws"    "bcr"        "latlong"    "prov_state"
bbs_strata[["bbs_cws"]]
#> # A tibble: 207 × 7
#>    strata_name area_sq_km country country_code prov_state   bcr bcr_by_country
#>  * <chr>            <dbl> <chr>   <chr>        <chr>      <dbl> <chr>         
#>  1 CA-AB-10        52565. Canada  CA           AB            10 Canada-BCR_10 
#>  2 CA-AB-11       149352. Canada  CA           AB            11 Canada-BCR_11 
#>  3 CA-AB-6        445135. Canada  CA           AB             6 Canada-BCR_6  
#>  4 CA-AB-8          6987. Canada  CA           AB             8 Canada-BCR_8  
#>  5 CA-BC-10       383006. Canada  CA           BC            10 Canada-BCR_10 
#>  6 CA-BC-4        193180. Canada  CA           BC             4 Canada-BCR_4  
#>  7 CA-BC-5        199820. Canada  CA           BC             5 Canada-BCR_5  
#>  8 CA-BC-6        106917. Canada  CA           BC             6 Canada-BCR_6  
#>  9 CA-BC-9         59939. Canada  CA           BC             9 Canada-BCR_9  
#> 10 CA-BCR7-7     1743744. Canada  CA           BCR7           7 Canada-BCR_7  
#> # … with 197 more rows
…
To use this file in bbsBayes2, we need to load it as an sf object
using the sf package.

map <- read_sf("WBPHS_stratum_boundaries_2019.shp")
map
#> Simple feature collection with 81 features and 1 field
#> Geometry type: POLYGON
#> Dimension:     XY
#> Bounding box:  xmin: -166.8897 ymin: 41.95304 xmax: -52.61347 ymax: 70.26563
#> Geodetic CRS:  WGS 84
#> # A tibble: 81 × 2
#>    STRAT                                                                geometry
#>    <int>                                                           <POLYGON [°]>
#>  1    10 ((-165.2478 65.9118, -165.4129 65.9136, -165.5941 65.92889, -165.7198 …
#>  2    10 ((-165.666 65.21061, -165.6339 65.226, -165.5973 65.22971, -165.534 65…
#>  3    11 ((-159.1616 66.1132, -159.2357 66.1137, -159.2907 66.1165, -159.3785 6…
#>  4     9 ((-161.8425 59.61546, -161.8578 59.61984, -161.8837 59.63493, -161.907…
#>  5    10 ((-162.0134 64.7124, -162.049 64.71309, -162.0833 64.71751, -162.1213 …
#>  6    10 ((-160.881 64.70971, -160.9209 64.7151, -160.9496 64.73389, -160.9629 …
#>  7     6 ((-158.4808 64.28549, -158.5828 64.2881, -158.6513 64.29482, -158.7074…
#>  8     5 ((-159.7113 61.94699, -159.7341 61.9489, -159.7628 61.95391, -159.8032…
#>  9     3 ((-153.8148 64.6944, -153.8857 64.6792, -153.9843 64.65071, -154.1057 …
#> 10     4 ((-144.2179 65.86969, -144.3817 65.87701, -144.4698 65.88491, -144.537…
#> # … with 71 more rows
…
We see that it has one column that reflects the stratum names. First
we’ll rename this column to strata_name which is what
stratify() requires.

map <- rename(map, strata_name = STRAT)
map
#> Simple feature collection with 81 features and 1 field
#> Geometry type: POLYGON
#> Dimension:     XY
#> Bounding box:  xmin: -166.8897 ymin: 41.95304 xmax: -52.61347 ymax: 70.26563
#> Geodetic CRS:  WGS 84
#> # A tibble: 81 × 2
#>    strata_name                                                          geometry
#>          <int>                                                     <POLYGON [°]>
#>  1          10 ((-165.2478 65.9118, -165.4129 65.9136, -165.5941 65.92889, -165…
#>  2          10 ((-165.666 65.21061, -165.6339 65.226, -165.5973 65.22971, -165.…
#>  3          11 ((-159.1616 66.1132, -159.2357 66.1137, -159.2907 66.1165, -159.…
#>  4           9 ((-161.8425 59.61546, -161.8578 59.61984, -161.8837 59.63493, -1…
#>  5          10 ((-162.0134 64.7124, -162.049 64.71309, -162.0833 64.71751, -162…
#>  6          10 ((-160.881 64.70971, -160.9209 64.7151, -160.9496 64.73389, -160…
#>  7           6 ((-158.4808 64.28549, -158.5828 64.2881, -158.6513 64.29482, -15…
#>  8           5 ((-159.7113 61.94699, -159.7341 61.9489, -159.7628 61.95391, -15…
#>  9           3 ((-153.8148 64.6944, -153.8857 64.6792, -153.9843 64.65071, -154…
#> 10           4 ((-144.2179 65.86969, -144.3817 65.87701, -144.4698 65.88491, -1…
#> # … with 71 more rows
…
We can take a quick look at the output, by looking at the meta data
and routes contained therein.

s[["meta_data"]]
#> $stratify_by
#> [1] "wbphs_2019"
#> 
#> $stratify_type
#> [1] "custom"
#> 
#> $species
#> [1] "Canada Jay"
s[["routes_strata"]]
#> # A tibble: 19,412 × 33
#>    strata_n…¹ count…² state…³ route route…⁴ active latit…⁵ longi…⁶   bcr route…⁷
#>    <chr>        <dbl>   <dbl> <chr> <chr>    <dbl>   <dbl>   <dbl> <dbl>   <dbl>
#>  1 3              840       3 3-8   TOWER …      1    63.6   -144.     4       1
#>  2 3              840       3 3-8   TOWER …      1    63.6   -144.     4       1
#>  3 3              840       3 3-8   TOWER …      1    63.6   -144.     4       1
#>  4 3              840       3 3-8   TOWER …      1    63.6   -144.     4       1
#>  5 3              840       3 3-8   TOWER …      1    63.6   -144.     4       1
#>  6 3              840       3 3-8   TOWER …      1    63.6   -144.     4       1
#>  7 3              840       3 3-8   TOWER …      1    63.6   -144.     4       1
#>  8 3              840       3 3-8   TOWER …      1    63.6   -144.     4       1
#>  9 3              840       3 3-8   TOWER …      1    63.6   -144.     4       1
#> 10 3              840       3 3-8   TOWER …      1    63.6   -144.     4       1
#> # … with 19,402 more rows, 23 more variables: route_type_detail_id <dbl>,
#> #   route_data_id <dbl>, rpid <dbl>, year <dbl>, month <dbl>, day <dbl>,
#> #   obs_n <dbl>, total_spp <dbl>, start_temp <dbl>, end_temp <dbl>,
#> #   temp_scale <chr>, start_wind <dbl>, end_wind <dbl>, start_sky <dbl>,
#> #   end_sky <dbl>, start_time <dbl>, end_time <dbl>, assistant <dbl>,
#> #   quality_current_id <dbl>, run_type <dbl>, state <chr>, st_abrev <chr>,
#> #   country <chr>, and abbreviated variable names ¹​strata_name, ²​country_num, …
…
s <- stratify(by = "WBPHS_2019", species = "Canada Jay", strata_custom = map,
              return_omitted = TRUE)
#> Using 'wbphs_2019' (custom) stratification
#> Loading BBS data...
#> Filtering to species Canada Jay (4840)
#> Stratifying data...
#> Preparing custom strata (EPSG:4326; WGS 84)...
#>   Summarizing strata...
#>   Calculating area weights...
#>   Joining routes to custom spatial data...
#>   Renaming routes...
#>   Omitting 100,155/119,567 route-years that do not match a stratum.
#>     Returning omitted routes.
s[["routes_omitted"]]
#> # A tibble: 100,155 × 11
#>     year strata_name country state   route route_…¹ latit…² longi…³   bcr  obs_n
#>    <dbl> <chr>       <chr>   <chr>   <chr> <chr>      <dbl>   <dbl> <dbl>  <dbl>
#>  1  1967 NA          US      ALABAMA 2-1   ST FLOR…    34.9   -87.6    27 1.14e6
#>  2  1969 NA          US      ALABAMA 2-1   ST FLOR…    34.9   -87.6    27 9.90e5
#>  3  1970 NA          US      ALABAMA 2-1   ST FLOR…    34.9   -87.6    27 9.90e5
#>  4  1971 NA          US      ALABAMA 2-1   ST FLOR…    34.9   -87.6    27 9.90e5
#>  5  1972 NA          US      ALABAMA 2-1   ST FLOR…    34.9   -87.6    27 9.90e5
#>  6  1973 NA          US      ALABAMA 2-1   ST FLOR…    34.9   -87.6    27 1.06e6
#>  7  1974 NA          US      ALABAMA 2-1   ST FLOR…    34.9   -87.6    27 1.06e6
#>  8  1975 NA          US      ALABAMA 2-1   ST FLOR…    34.9   -87.6    27 1.06e6
#>  9  1976 NA          US      ALABAMA 2-1   ST FLOR…    34.9   -87.6    27 1.06e6
#> 10  1977 NA          US      ALABAMA 2-1   ST FLOR…    34.9   -87.6    27 1.06e6
#> # … with 100,145 more rows, 1 more variable: total_spp <dbl>, and abbreviated
#> #   variable names ¹​route_name, ²​latitude, ³​longitude
…
